 DEFINE QALIAS(SANDIEGODRIVER.RMX.OUTBOUND.QA) +
         TARGQ(SANDIEGODRIVER.RMX.OUTBOUND.QL)  +
         DEFBIND(NOTFIXED) CLUSTER('') +
         DESCR('RMx CE BUILDER ERROR ALIAS QUEUE') +
         DEFPSIST(YES)  +
         REPLACE
  
 DEFINE QLOCAL(SANDIEGODRIVER.RMX.OUTBOUND.QL) +
         BOQNAME('')  +
         DEFBIND(NOTFIXED) CLUSTER('') +
         DESCR('RMx CE BUILDER ERROR LOCAL QUEUE') +
         DEFPSIST(YES)  +
         MAXDEPTH(10000) +
         MAXMSGL(104857600) +  
         REPLACE


 DEFINE QALIAS(IMAGETREND.RMX.INBOUND.QA) +
         TARGQ(IMAGETREND.RMX.INBOUND.QL)  +
         DEFBIND(NOTFIXED) CLUSTER('RMXCLUSTER') +
         DESCR('RMX QUEUS') +
         DEFPSIST(YES)  +
         REPLACE
  
 DEFINE QLOCAL(IMAGETREND.RMX.INBOUND.QL) +
         BOQNAME('')  +
         DEFBIND(NOTFIXED) CLUSTER('RMXCLUSTER') +
         DESCR('RMx QUEUES') +
         DEFPSIST(YES)  +
         MAXDEPTH(10000) +
         MAXMSGL(104857600) +  
         REPLACE



 DEFINE QALIAS(SANDIEGO.MANUALL.PULL.QA) +
         TARGQ(SANDIEGO.MANUALL.PULL)  +
         DESCR('RMX QUEUS') +
         DEFPSIST(YES)  +
         REPLACE
  
 DEFINE QLOCAL(SANDIEGO.MANUALL.PULL) +
         BOQNAME('')  +
         DESCR('RMx QUEUES') +
         DEFPSIST(YES)  +
         MAXDEPTH(10000) +
         MAXMSGL(104857600) +  
         REPLACE

SANTACLARA.MANUALL.PULL


 DEFINE QALIAS(SANTACLARA.MANUALL.PULL.QA) +
         TARGQ(SANTACLARA.MANUALL.PULL)  +
         DESCR('RMX QUEUS') +
         DEFPSIST(YES)  +
         REPLACE
  
 DEFINE QLOCAL(SANTACLARA.MANUALL.PULL) +
         BOQNAME('')  +
         DESCR('RMx QUEUES') +
         DEFPSIST(YES)  +
         MAXDEPTH(10000) +
         MAXMSGL(104857600) +  
         REPLACE



IMAETREND.RMX.INBOUND.XML.MANUAL


 DEFINE QALIAS(IMAETREND.RMX.INBOUND.XML.MANUAL.QA) +
         TARGQ(IMAETREND.RMX.INBOUND.XML.MANUAL.QL)  +
         DESCR('RMX QUEUS') +
         DEFPSIST(YES)  +
         REPLACE
  
 DEFINE QLOCAL(IMAETREND.RMX.INBOUND.XML.MANUAL.QL) +
         BOQNAME('')  +
         DESCR('RMx QUEUES') +
         DEFPSIST(YES)  +
         MAXDEPTH(10000) +
         MAXMSGL(10485760) +  
         REPLACE