 DEFINE QALIAS(CEAUDIT.RMX.INBOUND.QA) +
         TARGQ(CEAUDIT.RMX.INBOUND.QL)  +
         DEFBIND(NOTFIXED) CLUSTER('') +
         DESCR('RMx AUDIT RECEIVER ALIAS QUEUE') +
         DEFPSIST(YES)  +
         REPLACE
  
 DEFINE QLOCAL(CEAUDIT.RMX.INBOUND.QL) +
         BOQNAME('')  +
         DEFBIND(NOTFIXED) CLUSTER('') +
         DESCR('RMx AUDIT RECEIVER LOCAL QUEUE') +
         DEFPSIST(YES)  +
         MAXDEPTH(10000) +
         MAXMSGL(104857600) +  
         REPLACE
         
 DEFINE QALIAS(CEAUDIT.RMX.BACKOUT.QA) +
         TARGQ(CEAUDIT.RMX.BACKOUT.QL)  +
         DEFBIND(NOTFIXED) CLUSTER('') +
         DESCR('RMx AUDIT BACKOUT ALIAS QUEUE') +
         DEFPSIST(YES)  +
         REPLACE
         
DEFINE QALIAS(CEREPOST.RMX.INBOUND.QA) +
         TARGQ(CEREPOST.RMX.INBOUND.QL)  +
         DEFBIND(NOTFIXED) CLUSTER('') +
         DESCR('RMx AUDIT REPOST ALIAS QUEUE') +
         DEFPSIST(YES)  +
         REPLACE
    
 DEFINE QLOCAL(CEREPOST.RMX.INBOUND.QL) +
         BOQNAME('')  +
         DEFBIND(NOTFIXED) CLUSTER('') +
         DESCR('RMx AUDIT REPOST LOCAL QUEUE') +
         DEFPSIST(YES)  +
         MAXDEPTH(10000) +
         MAXMSGL(104857600) +  
         REPLACE

 DEFINE QLOCAL(CEAUDIT.RMX.BACKOUT.QL) +
         BOQNAME('')  +
         DEFBIND(NOTFIXED) CLUSTER('') +
         DESCR('RMx AUDIT BACKOUT LOCAL QUEUE') +
         DEFPSIST(YES)  +
         MAXDEPTH(10000) +
         MAXMSGL(104857600) +  
         REPLACE   




----------------------prod cluster-----------

 DEFINE QALIAS(CEAUDIT.RMX.INBOUND.QA) +
         TARGQ(CEAUDIT.RMX.INBOUND.QL)  +
         CLUSTER(RMXCLUSTER) +
         DESCR('RMx AUDIT RECEIVER ALIAS QUEUE') +
         DEFPSIST(YES)  +
         REPLACE
  
 DEFINE QLOCAL(CEAUDIT.RMX.INBOUND.QL) +
         BOQNAME('')  +
          CLUSTER(RMXCLUSTER) +
         DESCR('RMx AUDIT RECEIVER LOCAL QUEUE') +
         DEFPSIST(YES)  +
         MAXDEPTH(10000) +
         MAXMSGL(104857600) +  
         REPLACE
         
 DEFINE QALIAS(CEAUDIT.RMX.BACKOUT.QA) +
         TARGQ(CEAUDIT.RMX.BACKOUT.QL)  +
          CLUSTER(RMXCLUSTER) +
         DESCR('RMx AUDIT BACKOUT ALIAS QUEUE') +
         DEFPSIST(YES)  +
         REPLACE
         
DEFINE QALIAS(CEREPOST.RMX.INBOUND.QA) +
         TARGQ(CEREPOST.RMX.INBOUND.QL)  +
          CLUSTER(RMXCLUSTER) +
         DESCR('RMx AUDIT REPOST ALIAS QUEUE') +
         DEFPSIST(YES)  +
         REPLACE
    
 DEFINE QLOCAL(CEREPOST.RMX.INBOUND.QL) +
         BOQNAME('')  +
          CLUSTER(RMXCLUSTER) +
         DESCR('RMx AUDIT REPOST LOCAL QUEUE') +
         DEFPSIST(YES)  +
         MAXDEPTH(10000) +
         MAXMSGL(104857600) +  
         REPLACE

 DEFINE QLOCAL(CEAUDIT.RMX.BACKOUT.QL) +
         BOQNAME('')  +
         CLUSTER(RMXCLUSTER) +
         DESCR('RMx AUDIT BACKOUT LOCAL QUEUE') +
         DEFPSIST(YES)  +
         MAXDEPTH(10000) +
         MAXMSGL(104857600) +  
         REPLACE   