 
Billing Application Non cluster queues.

DEFINE QALIAS(BILLING.PREPARATION.RMX.INBOUND.QA) +
         TARGQ(BILLING.PREPARATION.RMX.INBOUND.QL)  +
         DEFBIND(NOTFIXED) CLUSTER('') +
         DESCR('RMx QUEUES') +
         DEFPSIST(YES)  +
         REPLACE
  
 DEFINE QLOCAL(BILLING.PREPARATION.RMX.INBOUND.QL) +
         BOQNAME(BILLING.PREPARATION.RMX.INBOUND.BACKOUT.QUEUE) +
         BOTHRESH(1) +
         DEFBIND(NOTFIXED) CLUSTER('') +
         DESCR('RMx QUEUES') +
         DEFPSIST(YES)  +
         MAXDEPTH(10000) +
         MAXMSGL(10485760) +  
         REPLACE


  
 DEFINE QLOCAL(BILLING.PREPARATION.RMX.INBOUND.BACKOUT.QUEUE) +
         BOQNAME('SYSTEM.DEAD.LETTER.QUEUE')  +
         DESCR('RMX QUEUES') +
         DEFPSIST(YES)  +
         MAXDEPTH(10000) +
         MAXMSGL(10485760) +
         BOTHRESH(1) +  
         REPLACE

----------------------


 DEFINE QALIAS(AMR.SENDER.RMX.OUTBOUND.QA) +
         TARGQ(AMR.SENDER.RMX.OUTBOUND.QL)  +
         DEFBIND(NOTFIXED) CLUSTER('') +
         DESCR('RMx QUEUES') +
         DEFPSIST(YES)  +
         REPLACE
  
 DEFINE QLOCAL(AMR.SENDER.RMX.OUTBOUND.QL) +
         BOQNAME(AMR.SENDER.RMX.OUTBOUND.BACKOUT.QUEUE) +
         BOTHRESH(1) +
         DEFBIND(NOTFIXED) CLUSTER('') +
         DESCR('RMx QUEUES') +
         DEFPSIST(YES)  +
         MAXDEPTH(10000) +
         MAXMSGL(10485760) +  
         REPLACE


  
 DEFINE QLOCAL(AMR.SENDER.RMX.OUTBOUND.BACKOUT.QUEUE) +
         BOQNAME('SYSTEM.DEAD.LETTER.QUEUE')  +
         DESCR('RMX QUEUES') +
         DEFPSIST(YES)  +
         MAXDEPTH(10000) +
         MAXMSGL(10485760) +
         BOTHRESH(1) +  
         REPLACE